                   T[GeV]                 Cpu[GeV]                 Cpd[GeV]                 Nextrema                 BranchID               sigma[GeV]              Mquark[GeV]           Mpion^2[GeV^2]          Msigma^2[GeV^2]             Omega[GeV^4]           dTOmega[GeV^3]         dCpuOmega[GeV^3]         dCpdOmega[GeV^3]
                    0.017                   0.3425                   0.3425                        1                        0       0.0920658771537896        0.386676684045916       0.0189183061596257        0.227927883886041       0.0425054714073119                        0                        0                        0
                    0.017        0.342550847457627        0.342550847457627                        1                        0       0.0920617165537625        0.386659209525803       0.0189222106956277        0.224606420267335       0.0425054699203422                        0                        0                        0
                    0.017        0.342601694915254        0.342601694915254                        1                        0       0.0920573923239366        0.386641047760534       0.0189262062410779        0.221183477989651       0.0425054684169542                        0                        0                        0
                    0.017        0.342652542372881        0.342652542372881                        1                        0       0.0920528993556562        0.386622177293756       0.0189303002657691        0.217664585485296       0.0425054668894248                        0                        0                        0
                    0.017        0.342703389830509        0.342703389830509                        1                        0       0.0920482302941063        0.386602567235247       0.0189345032039744        0.214052626400211       0.0425054653401702                        0                        0                        0
                    0.017        0.342754237288136        0.342754237288136                        1                        0       0.0920433775274872        0.386582185615446       0.0189388266193546        0.210349605921492       0.0425054637716361                        0                        0                        0
                    0.017        0.342805084745763        0.342805084745763                        1                        0       0.0920383355343921        0.386561009244447       0.0189432811058938        0.206558420979651       0.0425054621760223                        0                        0                        0
                    0.017         0.34285593220339         0.34285593220339                        1                        0       0.0920330963468553        0.386539004656792       0.0189478806332765        0.202680307491769       0.0425054605558135                        0                        0                        0
                    0.017        0.342906779661017        0.342906779661017                        1                        0        0.092027652687804        0.386516141288777       0.0189526396550919        0.198716891421821       0.0425054589096201                        0                        0                        0
                    0.017        0.342957627118644        0.342957627118644                        1                        0       0.0920219970295405         0.38649238752407       0.0189575741381773        0.194669803518649       0.0425054572364546                        0                        0                        0
                    0.017        0.343008474576271        0.343008474576271                        1                        0       0.0920161225934148        0.386467714892342       0.0189627006910658        0.190541342022933       0.0425054555318004                        0                        0                        0
                    0.017        0.343059322033898        0.343059322033898                        1                        0        0.092010019880283        0.386442083497189        0.018968039878735        0.186332459015904       0.0425054538011117                        0                        0                        0
                    0.017        0.343110169491525        0.343110169491525                        1                        0       0.0920036818540852        0.386415463787158       0.0189736115598271        0.182045976724331       0.0425054520396994                        0                        0                        0
                    0.017        0.343161016949153        0.343161016949153                        1                        0       0.0919971014675304        0.386387826163628       0.0189794371971666        0.177685134643569       0.0425054502428599                        0                        0                        0
                    0.017         0.34321186440678         0.34321186440678                        1                        0       0.0919902688524604        0.386359129180334       0.0189855427266795          0.1732520402771       0.0425054484155088                        0                        0                        0
                    0.017        0.343262711864407        0.343262711864407                        3                        1       0.0919831774314685        0.386329345212168       0.0189919527931045        0.168751257292481       0.0425054465506964                        0                        0                        0
                    0.017        0.343313559322034        0.343313559322034                        3                        1       0.0919758182450985        0.386298436629414       0.0189986962779938        0.164186600468638       0.0425054446494963                        0                        0                        0
                    0.017        0.343364406779661        0.343364406779661                        3                        1       0.0919681830217002        0.386266368691141       0.0190058035146379        0.159562985513125       0.0425054427103258                        0                        0                        0
                    0.017        0.343415254237288        0.343415254237288                        3                        1       0.0919602635322748        0.386233106835554       0.0190133069647071        0.154886059140703       0.0425054407315264                        0                        0                        0
                    0.017        0.343466101694915        0.343466101694915                        3                        1        0.091952051530841        0.386198616429532       0.0190212413897247         0.15016227208056       0.0425054387113931                        0                        0                        0
                    0.017        0.343516949152542        0.343516949152542                        3                        1       0.0919435388162435        0.386162863028223       0.0190296438920724        0.145398946002099       0.0425054366482179                        0                        0                        0
                    0.017         0.34356779661017         0.34356779661017                        3                        1        0.091934717311965        0.386125812710253       0.0190385538967977         0.14060436875017       0.0425054345401757                        0                        0                        0
                    0.017        0.343618644067797        0.343618644067797                        3                        1       0.0919255803314025        0.386087437391891        0.019048011880835        0.135788486473941       0.0425054323820136                        0                        0                        0
                    0.017        0.343669491525424        0.343669491525424                        3                        1       0.0919161175436873        0.386047693683487        0.019058064874035        0.130960447379777       0.0425054301784535                        0                        0                        0
                    0.017        0.343720338983051        0.343720338983051                        3                        1       0.0919063225860504        0.386006554861411       0.0190687583041602         0.12613244614882       0.0425054279241624                        0                        0                        0
                    0.017        0.343771186440678        0.343771186440678                        3                        1       0.0918961895464806        0.385963996095218       0.0190801396729903        0.121317930092304       0.0425054256136012                        0                        0                        0
                    0.017        0.343822033898305        0.343822033898305                        3                        1       0.0918857100203242        0.385919982085362       0.0190922620518388        0.116530343783672       0.0425054232481833                        0                        0                        0
                    0.017        0.343872881355932        0.343872881355932                        3                        1       0.0918748758330346        0.385874478498746       0.0191051810745691         0.11178447091411       0.0425054208287711                        0                        0                        0
                    0.017        0.343923728813559        0.343923728813559                        3                        1       0.0918636836040473        0.385827471136999       0.0191189493183435        0.107098376082228       0.0425054183465125                        0                        0                        0
                    0.017        0.343974576271186        0.343974576271186                        3                        1       0.0918521260583283        0.385778929444979       0.0191336266185524         0.10248963403241       0.0425054158024241                        0                        0                        0
                    0.017        0.344025423728814        0.344025423728814                        3                        1       0.0918401977997458        0.385728830758932       0.0191492731633637       0.0979778641218845       0.0425054131941232                        0                        0                        0
                    0.017        0.344076271186441        0.344076271186441                        3                        1       0.0918278940419666         0.38567715497626        0.019165950731271        0.093584103082501       0.0425054105189351                        0                        0                        0
                    0.017        0.344127118644068        0.344127118644068                        3                        1       0.0918152105771151        0.385623884423884       0.0191837226958557        0.089330799520984       0.0425054077744933                        0                        0                        0
                    0.017        0.344177966101695        0.344177966101695                        3                        1       0.0918021438778309         0.38556900428689       0.0192026535827146       0.0852417515995067       0.0425054049581738                        0                        0                        0
                    0.017        0.344228813559322        0.344228813559322                        3                        1       0.0917886929045094         0.38551251019894       0.0192228061120191       0.0813425431407305       0.0425054020641089                        0                        0                        0
                    0.017        0.344279661016949        0.344279661016949                        3                        1       0.0913278150686944        0.383576823288516       0.0190876883144084       0.0309848359655474       0.0425053980036262                        0                        0                        0
                    0.017        0.344330508474576        0.344330508474576                        3                        1        0.091205303424579        0.383062274383232       0.0191079078643286       0.0218206960772835       0.0425053933365601                        0                        0                        0
                    0.017        0.344381355932203        0.344381355932203                        3                        1       0.0911082397404631        0.382654606909945       0.0191421783830004       0.0163213241663869       0.0425053882651856                        0                        0                        0
                    0.017         0.34443220338983         0.34443220338983                        3                        1       0.0910240105583645        0.382300844345131       0.0191845057106138       0.0128631774621441       0.0425053828451474                        0                        0                        0
                    0.017        0.344483050847458        0.344483050847458                        3                        1       0.0909477097578547         0.38198038098299       0.0192324428066529       0.0107644689748796       0.0425053771071724                        0                        0                        0
                    0.017        0.344483050847458        0.344483050847458                        3                        2       0.0886554393172552        0.372352845132472       0.0197378071261165     -0.00337805717400005       0.0425053810591781                        0                        0                        0
                    0.017         0.34443220338983         0.34443220338983                        3                        2       0.0876875734991847        0.368287808696576       0.0199562169789064     -0.00419764484663613       0.0425053972076618                        0                        0                        0
                    0.017        0.344381355932203        0.344381355932203                        3                        2       0.0868434352412042        0.364742428013058       0.0201507110276447     -0.00457873408925254       0.0425054165375927                        0                        0                        0
                    0.017        0.344330508474576        0.344330508474576                        3                        2       0.0860593995371503        0.361449478056031       0.0203344018058125     -0.00480183376155528       0.0425054387775845                        0                        0                        0
                    0.017        0.344279661016949        0.344279661016949                        3                        2       0.0853040887333797        0.358277172680195       0.0205145846224942     -0.00494665438779874       0.0425054637794995                        0                        0                        0
                    0.017        0.344228813559322        0.344228813559322                        3                        2       0.0845666738240235        0.355180030060899       0.0206936344158388     -0.00504401990587406       0.0425054914546912                        0                        0                        0
                    0.017        0.344177966101695        0.344177966101695                        3                        2       0.0838416802404198        0.352135057009763       0.0208727216291684     -0.00510912405208365       0.0425055217441446                        0                        0                        0
                    0.017        0.344127118644068        0.344127118644068                        3                        2       0.0831256727183875        0.349127825417227       0.0210525809177925      -0.0051504268981193       0.0425055546093598                        0                        0                        0
                    0.017        0.344076271186441        0.344076271186441                        3                        2       0.0824179244884304        0.346155282851408       0.0212332370390588     -0.00517259527895521       0.0425055900254275                        0                        0                        0
                    0.017        0.344025423728814        0.344025423728814                        3                        2       0.0817107456917648        0.343185131905412       0.0214169984777596     -0.00517868854536581       0.0425056279747762                        0                        0                        0
                    0.017        0.343974576271186        0.343974576271186                        3                        2       0.0810032022700374        0.340213449534157       0.0216041080815467     -0.00517048665460009       0.0425056684457163                        0                        0                        0
                    0.017        0.343923728813559        0.343923728813559                        3                        2       0.0802948411143277        0.337238332680177       0.0217947350325695     -0.00514880952665656        0.042505711435477                        0                        0                        0
                    0.017        0.343872881355932        0.343872881355932                        3                        2       0.0795851003959674        0.334257421663063       0.0219890033806203      -0.0051138389975828       0.0425057569490515                        0                        0                        0
                    0.017        0.343822033898305        0.343822033898305                        3                        2       0.0788712190133032        0.331259119855873       0.0221878634954594     -0.00506512056775358       0.0425058050005699                        0                        0                        0
                    0.017        0.343771186440678        0.343771186440678                        3                        2       0.0781451264007884        0.328209530883311       0.0223941899033165     -0.00500110201261047       0.0425058556016842                        0                        0                        0
                    0.017        0.343720338983051        0.343720338983051                        3                        2       0.0774095468931013        0.325120096951025       0.0226071548472182     -0.00492063003927455       0.0425059087775787                        0                        0                        0
                    0.017        0.343669491525424        0.343669491525424                        3                        2       0.0766622644869441        0.321981510845165       0.0228276401278999     -0.00482152285414418       0.0425059645649357                        0                        0                        0
                    0.017        0.343618644067797        0.343618644067797                        3                        2        0.075900174924272        0.318780734681943       0.0230568823286314     -0.00470053684860805       0.0425060230081793                        0                        0                        0
                    0.017         0.34356779661017         0.34356779661017                        3                        2        0.075118676822829        0.315498442655882       0.0232967062095878     -0.00455292816862204       0.0425060841658555                        0                        0                        0
                    0.017        0.343516949152542        0.343516949152542                        3                        2       0.0743106385803364        0.312104682037413       0.0235499331232028     -0.00437156447821417       0.0425061481225712                        0                        0                        0
                    0.017        0.343466101694915        0.343466101694915                        3                        2       0.0734646737540012        0.308551629766805       0.0238210797466347     -0.00414485090233744       0.0425062149831984                        0                        0                        0
                    0.017        0.343415254237288        0.343415254237288                        3                        2       0.0725619082681837        0.304760014726372       0.0241176456944452     -0.00385280995509048       0.0425062848976725                        0                        0                        0
                    0.017        0.343364406779661        0.343364406779661                        3                        2       0.0715723523562722        0.300603879896343       0.0244515706011823     -0.00345888951107195       0.0425063580920941                        0                        0                        0
                    0.017        0.343313559322034        0.343313559322034                        3                        2       0.0704587009665665        0.295926544059579       0.0248376601132599     -0.00289816802207984       0.0425064349386321                        0                        0                        0
                    0.017        0.343262711864407        0.343262711864407                        3                        2       0.0689571045073449        0.289619838930849       0.0253796451328041     -0.00188388267962581       0.0425065161412446                        0                        0                        0
                    0.017        0.343262711864407        0.343262711864407                        3                        3       0.0652986497834932        0.274254329090671       0.0268014025213361      0.00230781689356067       0.0425065111153406                        0                        0                        0
                    0.017        0.343313559322034        0.343313559322034                        3                        3       0.0641166917551727        0.269290105371725       0.0272895515128082      0.00418255933366858       0.0425064119241827                        0                        0                        0
                    0.017        0.343364406779661        0.343364406779661                        3                        3       0.0634480367220834         0.26648175423275       0.0275807159500932      0.00532374327660943       0.0425063097292674                        0                        0                        0
                    0.017        0.343415254237288        0.343415254237288                        3                        3       0.0629091968593652        0.264218626809334       0.0278210940995782      0.00627690058632238       0.0425062051514782                        0                        0                        0
                    0.017        0.343466101694915        0.343466101694915                        3                        3        0.062351768880812         0.26187742929941         0.02806319247095      0.00726927147335249       0.0425060986788333                        0                        0                        0
                    0.017        0.343516949152542        0.343516949152542                        3                        3       0.0619676529058012        0.260264142204365       0.0282439004109424      0.00797017194618905       0.0425059905789809                        0                        0                        0
                    0.017         0.34356779661017         0.34356779661017                        3                        3       0.0615131995131276        0.258355437955136       0.0284447387152814       0.0087926638245537       0.0425058809180334                        0                        0                        0
                    0.017        0.343618644067797        0.343618644067797                        3                        3       0.0611998847819106        0.257039516084025       0.0285980291393019      0.00937047938858958       0.0425057699085591                        0                        0                        0
                    0.017        0.343669491525424        0.343669491525424                        3                        3       0.0608284176333222        0.255479354059953       0.0287676613444093       0.0100439947197211       0.0425056576586113                        0                        0                        0
                    0.017        0.343720338983051        0.343720338983051                        3                        3       0.0605206245998861        0.254186623319522       0.0289157417997958        0.010607197414177       0.0425055440995141                        0                        0                        0
                    0.017        0.343771186440678        0.343771186440678                        3                        3       0.0602377002662181        0.252998341118116       0.0290549343438662       0.0111230246771162       0.0425054295205262                        0                        0                        0
                    0.017        0.343822033898305        0.343822033898305                        3                        3       0.0599151511005082        0.251643634622134       0.0292043975775841       0.0116997267776444       0.0425053138396627                        0                        0                        0
                    0.017        0.343872881355932        0.343872881355932                        3                        3       0.0596600607101876        0.250572254982788       0.0293327367316711       0.0121618743280559       0.0425051970540693                        0                        0                        0
                    0.017        0.343923728813559        0.343923728813559                        3                        3       0.0594146700959103        0.249541614402823        0.029457353835332       0.0126031706105387       0.0425050793770364                        0                        0                        0
                    0.017        0.343974576271186        0.343974576271186                        3                        3       0.0591458343989429         0.24841250447556       0.0295875672017153       0.0130772359136745       0.0425049607513709                        0                        0                        0
                    0.017        0.344025423728814        0.344025423728814                        3                        3       0.0588914567425222        0.247344118318593        0.029712584325116       0.0135241253053674       0.0425048411221204                        0                        0                        0
                    0.017        0.344076271186441        0.344076271186441                        3                        3       0.0586800380909588        0.246456159982027       0.0298250000375646       0.0138991401567004        0.042504720660981                        0                        0                        0
                    0.017        0.344127118644068        0.344127118644068                        3                        3       0.0584550023515462        0.245511009876494       0.0299404238243443       0.0142909007042827       0.0425045993807908                        0                        0                        0
                    0.017        0.344177966101695        0.344177966101695                        3                        3        0.058213146358391        0.244495214705242       0.0300594880718959       0.0147037892377114       0.0425044772346698                        0                        0                        0
                    0.017        0.344228813559322        0.344228813559322                        3                        3       0.0580007181717653        0.243603016321414       0.0301699495501788       0.0150683144949449       0.0425043542144881                        0                        0                        0
                    0.017        0.344279661016949        0.344279661016949                        3                        3       0.0578085685408386        0.242795987871522       0.0302745975222621       0.0153987011066417       0.0425042304557097                        0                        0                        0
                    0.017        0.344330508474576        0.344330508474576                        3                        3       0.0576069776899102        0.241949306297623       0.0303811520664674       0.0157391261104951       0.0425041059510411                        0                        0                        0
                    0.017        0.344381355932203        0.344381355932203                        3                        3       0.0573943015024031        0.241056066310093         0.03048988846276        0.016091553912279       0.0425039806712123                        0                        0                        0
                    0.017         0.34443220338983         0.34443220338983                        3                        3       0.0571904906669519        0.240200060801198       0.0305957146988781       0.0164274329776394       0.0425038545897693                        0                        0                        0
                    0.017        0.344483050847458        0.344483050847458                        3                        3       0.0570170738615399        0.239471710218468       0.0306935657870217       0.0167169843969214       0.0425037278096262                        0                        0                        0
                    0.017        0.344533898305085        0.344533898305085                        1                        0       0.0568373098255089        0.238716701267137       0.0307926033620874        0.017012093167132       0.0425036003536067                        0                        0                        0
                    0.017        0.344584745762712        0.344584745762712                        1                        0       0.0566503938506358         0.23793165417267       0.0308929359759889       0.0173135500229812        0.042503472199476                        0                        0                        0
                    0.017        0.344635593220339        0.344635593220339                        1                        0       0.0564553348662994        0.237112406438458       0.0309946955673759       0.0176223417139392       0.0425033433242873                        0                        0                        0
                    0.017        0.344686440677966        0.344686440677966                        1                        0       0.0562832491616525        0.236389646478941       0.0310905330628889       0.0178972288640183       0.0425032137350055                        0                        0                        0
                    0.017        0.344737288135593        0.344737288135593                        1                        0       0.0561220174758276        0.235712473398476       0.0311835418193191        0.018154914653391         0.04250308351793                        0                        0                        0
                    0.017         0.34478813559322         0.34478813559322                        1                        0       0.0559561192069259        0.235015700669089       0.0312773465061353       0.0184157755918287       0.0425029526677283                        0                        0                        0
                    0.017        0.344838983050847        0.344838983050847                        1                        0       0.0557850910213567        0.234297382289698       0.0313719927546973       0.0186801667818242       0.0425028211698792                        0                        0                        0
                    0.017        0.344889830508475        0.344889830508475                        1                        0       0.0556083864443748        0.233555223066374       0.0314675334925417       0.0189485061880294       0.0425026890103711                        0                        0                        0
                    0.017        0.344940677966102        0.344940677966102                        1                        0       0.0554457947022039        0.232872337749256       0.0315595126887418       0.0191963363222743       0.0425025561846006                        0                        0                        0
                    0.017        0.344991525423729        0.344991525423729                        1                        0       0.0552965927044639        0.232245689358749       0.0316482869199892       0.0194252018846127       0.0425024227677288                        0                        0                        0
                    0.017        0.345042372881356        0.345042372881356                        1                        0       0.0551440477528034        0.231605000561774       0.0317375941335982       0.0196556329598506       0.0425022887582686                        0                        0                        0
                    0.017        0.345093220338983        0.345093220338983                        1                        0       0.0549879031172684        0.230949193092527       0.0318274497733173       0.0198877597679926       0.0425021541500146                        0                        0                        0
                    0.017         0.34514406779661         0.34514406779661                        1                        0       0.0548278697390738         0.23027705290411       0.0319178693648907       0.0201217258959603       0.0425020189300983                        0                        0                        0
                    0.017        0.345194915254237        0.345194915254237                        1                        0       0.0546636169932477         0.22958719137164       0.0320088700575785       0.0203576942457214       0.0425018830848755                        0                        0                        0
                    0.017        0.345245762711864        0.345245762711864                        1                        0       0.0545250539310759        0.229005226510519       0.0320941685440575       0.0205620035027797       0.0425017466504646                        0                        0                        0
                    0.017        0.345296610169491        0.345296610169491                        1                        0       0.0543844208508282        0.228414567573478       0.0321797709434925       0.0207665444582356       0.0425016096631168                        0                        0                        0
                    0.017        0.345347457627119        0.345347457627119                        1                        0       0.0542412704816554        0.227813336022953       0.0322657442174233       0.0209716951536111       0.0425014721157348                        0                        0                        0
                    0.017        0.345398305084746        0.345398305084746                        1                        0       0.0540954495609624        0.227200888156042       0.0323520895333993        0.021177484066094       0.0425013340009074                        0                        0                        0
                    0.017        0.345449152542373        0.345449152542373                        1                        0       0.0539467880477065        0.226576509800367       0.0324388079452123       0.0213839412867813       0.0425011953126906                        0                        0                        0
                    0.017                   0.3455                   0.3455                        1                        0       0.0537956339319839        0.225941662514332       0.0325257907245956       0.0215905468401787       0.0425010560389358                        0                        0                        0
